…
# tax_final is the budget
tax_modified <- tax_final  %>% mutate(X2019=tax_final$X2018*(1+(((tax_final$X2017-tax_final$X2016)/tax_final$X2016 + (tax_final$X2018-tax_final$X2017)/tax_final$X2017)/2)))

# tax_modified contains all the budget values from 2016 to 2019
#head(tax_modified)
```

global variables

``` r
# all pct aggregated
pct_final
```

    ## # A tibble: 165 x 9
    ##     Year Municipalities TaxClassCode assessTotal_pct landTotal_pct
    ##    <dbl> <chr>          <chr>                  <dbl>         <dbl>
    ##  1  2017 Anmore         01                   -13.9          -0.380
    ##  2  2017 Anmore         06                    10.3          45.4  
    ##  3  2017 Belcarra       01                    12.2          14.7  
    ##  4  2017 Bowen Island   01                     7.59         12.9  
    ##  5  2017 Bowen Island   05                    -0.490         0    
    ##  6  2017 Bowen Island   06                    14.7          37.5  
    ##  7  2017 Burnaby        01                    12.0          25.4  
    ##  8  2017 Burnaby        05                    17.5          31.0  
    ##  9  2017 Burnaby        06                    15.1          23.9  
    ## 10  2017 Coquitlam      01                     9.80         11.9  
    ## # ... with 155 more rows, and 4 more variables:
    ## #   improvementTotal_pct <dbl>, propertyCount_pct <dbl>, rate_pct <dbl>,
    ## #   tax <dbl>
…
