…
# tax_final is the budget
tax_modified <- tax_final  %>% mutate(X2019=tax_final$X2018*(1+(((tax_final$X2017-tax_final$X2016)/tax_final$X2016 + (tax_final$X2018-tax_final$X2017)/tax_final$X2017)/2)))

# tax_modified contains all the budget values from 2016 to 2019
#head(tax_modified)
```

global variables

``` r
# all pct aggregated
pct_final
```

    ## # A tibble: 165 x 9
    ##     Year Municipalities TaxClassCode assessTotal_pct landTotal_pct
    ##    <dbl> <chr>          <chr>                  <dbl>         <dbl>
    ##  1  2017 Anmore         01                   -13.9          -0.380
    ##  2  2017 Anmore         06                    10.3          45.4  
    ##  3  2017 Belcarra       01                    12.2          14.7  
    ##  4  2017 Bowen Island   01                     7.59         12.9  
    ##  5  2017 Bowen Island   05                    -0.490         0    
    ##  6  2017 Bowen Island   06                    14.7          37.5  
    ##  7  2017 Burnaby        01                    12.0          25.4  
    ##  8  2017 Burnaby        05                    17.5          31.0  
    ##  9  2017 Burnaby        06                    15.1          23.9  
    ## 10  2017 Coquitlam      01                     9.80         11.9  
    ## # ... with 155 more rows, and 4 more variables:
    ## #   improvementTotal_pct <dbl>, propertyCount_pct <dbl>, rate_pct <dbl>,
    ## #   tax <dbl>
…
tax_modified1 <- gather(tax_modified, Year, tax, '2016':'2019', factor_key = TRUE)%>%
  rename(AddressAssessorMunicipalityDesc = Municipalities)

assessment_aggregate <- merge(assessment_aggregate, tax_modified1, by = c("AddressAssessorMunicipalityDesc","Year"))
assessment_aggregate <- assessment_aggregate[,-c(3,11)]
names(assessment_aggregate)[10] <- paste("tax")

# correlation between mill rate and budget for each municipality
rate_tax_correlation <- assessment_aggregate %>%
  group_by(AddressAssessorMunicipalityDesc,TaxClassCode)%>%
  summarise(cor(rate, tax))
rate_tax_correlation
```

    ## # A tibble: 56 x 3
    ## # Groups:   AddressAssessorMunicipalityDesc [20]
    ##    AddressAssessorMunicipalityDesc TaxClassCode `cor(rate, tax)`
    ##    <fct>                                  <int>            <dbl>
    ##  1 Anmore                                     1           -0.879
    ##  2 Anmore                                     6           -0.990
    ##  3 Belcarra                                   1           -0.765
    ##  4 Belcarra                                   6           -1    
    ##  5 Bowen Island                               1           -0.625
    ##  6 Bowen Island                               5           -0.735
    ##  7 Bowen Island                               6           -0.759
    ##  8 Burnaby                                    1           -0.821
    ##  9 Burnaby                                    5           -0.997
    ## 10 Burnaby                                    6           -0.997
    ## # ... with 46 more rows

``` r
# correlation between mill rate and assessment
rate_assess_correlation2 <- assessment_aggregate %>%
  group_by(AddressAssessorMunicipalityDesc,TaxClassCode)%>%
  summarise(cor(assessTotal, rate))
rate_assess_correlation2
```

    ## # A tibble: 56 x 3
    ## # Groups:   AddressAssessorMunicipalityDesc [20]
    ##    AddressAssessorMunicipalityDesc TaxClassCode `cor(assessTotal, rate)`
    ##    <fct>                                  <int>                    <dbl>
    ##  1 Anmore                                     1                   -0.580
    ##  2 Anmore                                     6                   -0.993
    ##  3 Belcarra                                   1                   -0.848
    ##  4 Belcarra                                   6                    1.00 
    ##  5 Bowen Island                               1                   -0.539
    ##  6 Bowen Island                               5                   -0.640
    ##  7 Bowen Island                               6                   -0.872
    ##  8 Burnaby                                    1                   -0.720
    ##  9 Burnaby                                    5                   -0.980
    ## 10 Burnaby                                    6                   -0.991
    ## # ... with 46 more rows
…
    ## Loading required package: lattice

    ## 
    ## Attaching package: 'caret'

    ## The following object is masked from 'package:purrr':
    ## 
    ##     lift

``` r
tibble::as_tibble(test)
```

    ## # A tibble: 147 x 9
    ##     Year Municipalities TaxClassCode assessTotal_pct landTotal_pct
    ##    <dbl> <chr>          <chr>                  <dbl>         <dbl>
    ##  1  2017 Anmore         01                   -13.9          -0.380
    ##  2  2017 Anmore         06                    10.3          45.4  
    ##  3  2017 Belcarra       01                    12.2          14.7  
    ##  4  2017 Bowen Island   01                     7.59         12.9  
    ##  5  2017 Bowen Island   05                    -0.490         0    
    ##  6  2017 Bowen Island   06                    14.7          37.5  
    ##  7  2017 Burnaby        01                    12.0          25.4  
    ##  8  2017 Burnaby        05                    17.5          31.0  
    ##  9  2017 Burnaby        06                    15.1          23.9  
    ## 10  2017 Coquitlam      01                     9.80         11.9  
    ## # ... with 137 more rows, and 4 more variables:
    ## #   improvementTotal_pct <dbl>, propertyCount_pct <dbl>, rate_pct <dbl>,
    ## #   tax <dbl>
…
